<?xml version="1.0" encoding="UTF-8"?>
<!-- Generator: Adobe Illustrator 22.1.0, SVG Export Plug-In . SVG Version: 6.00 Build 0)  -->
<svg id="Logo_Blueprint_copy" enable-background="new 0 0 500 219.2" version="1.1" viewBox="0 0 500 219.2" xml:space="preserve" xmlns="http://www.w3.org/2000/svg">
<style type="text/css">
	.st0{fill:#FDC300;}
	.st1{fill:#31302D;}
</style>

	
		<path class="st0" d="m146.3 81.4c0 5.1-4.2 9.3-9.3 9.3s-9.3-4.2-9.3-9.3 4.2-9.3 9.3-9.3 9.3 4.2 9.3 9.3"/>
		<polygon class="st0" points="122 62.7 103.3 62.7 80.8 147 144.5 147 149.5 128.3 104.8 128.3"/>
		
			<path class="st0" d="m112.6 34.6c-41.4 0-75 33.6-75 75s33.6 75 75 75 75-33.6 75-75-33.6-75-75-75zm0 131.1c-31 0-56.1-25.1-56.1-56.1s25.1-56.1 56.1-56.1 56.1 25.1 56.1 56.1c0.1 31-25.1 56.1-56.1 56.1z"/>
		
	
	
		
			<path class="st1" d="m230.7 94.5c2.7 0 5 0.8 6.7 2.4s2.6 3.6 2.6 6.1-0.9 4.6-2.6 6.1c-1.7 1.6-4 2.3-6.9 2.3h-5.5v12.3h-5.7v-29.2h11.4zm-1.4 12.6c1.5 0 2.7-0.3 3.5-1s1.3-1.7 1.3-3.1c0-2.7-1.7-4-5.2-4h-3.9v8.2h4.3z"/>
			<path class="st1" d="m257.1 103.8c0.7 0 1.4 0.2 2 0.5 0.7 0.3 1.4 0.8 2.3 1.6l-1.8 4.5c-1.5-1.1-2.7-1.7-3.6-1.7-0.8 0-1.6 0.3-2.4 0.9s-1.4 1.4-1.9 2.4-0.7 2-0.7 2.9v8.9h-5.2v-19.6h5.2v5h0.1c0.9-1.9 1.9-3.3 2.8-4.1 1.1-0.8 2.1-1.3 3.2-1.3z"/>
			<path class="st1" d="m274.9 103.8c2 0 3.9 0.4 5.6 1.3s3 2 3.9 3.6c0.9 1.5 1.4 3.3 1.4 5.2 0 2-0.4 3.8-1.3 5.3s-2.2 2.7-3.9 3.6-3.6 1.3-5.6 1.3c-2.1 0-3.9-0.4-5.6-1.3s-3-2.1-3.8-3.6c-0.9-1.5-1.3-3.3-1.3-5.3s0.5-3.7 1.4-5.3 2.2-2.7 3.9-3.6c1.5-0.7 3.3-1.2 5.3-1.2zm-5.3 10.1c0 2 0.5 3.5 1.4 4.7 1 1.2 2.2 1.8 3.8 1.8 1.7 0 3-0.6 4-1.7s1.4-2.7 1.4-4.8c0-2-0.5-3.5-1.5-4.6s-2.3-1.6-4-1.6c-1.6 0-2.8 0.6-3.8 1.7-0.8 1.1-1.3 2.6-1.3 4.5z"/>
			<path class="st1" d="m300.2 94.1c0.6 0 1.2 0.1 1.9 0.2 0.6 0.1 1.2 0.3 1.5 0.4v4.2c-0.7-0.2-1.5-0.3-2.3-0.3-1.2 0-2.2 0.3-2.8 1-0.6 0.6-0.9 1.7-0.9 3.2v1.4h3.4v3.9h-3.4v15.7h-5.2v-15.7h-2.8v-3.9h2.8v-1.5c0-2.6 0.7-4.7 2.1-6.3 1.5-1.5 3.4-2.3 5.7-2.3z"/>
			<path class="st1" d="m314.6 103.8c2.9 0 5.2 0.9 6.8 2.8 1.7 1.8 2.5 4.4 2.5 7.7v0.8h-13.9c0.2 1.7 0.9 3.1 2 4s2.6 1.4 4.5 1.4c1.2 0 2.4-0.2 3.6-0.6 1.1-0.4 2.3-1.1 3.5-1.9v3.8c-2.3 1.6-5.1 2.4-8.3 2.4-3.1 0-5.6-0.9-7.6-2.8s-2.9-4.3-2.9-7.4c0-3 0.9-5.4 2.7-7.3s4.2-2.9 7.1-2.9zm4.5 8.1c-0.1-1.4-0.6-2.5-1.3-3.3s-1.7-1.2-3-1.2-2.3 0.4-3.1 1.2-1.3 1.9-1.5 3.4h8.9z"/>
			<path class="st1" d="m336.5 103.8c1.1 0 2.1 0.1 3 0.4 1 0.2 2 0.6 3 1.2v4.1c-1-0.6-2-1.1-3.1-1.5s-2.1-0.6-3-0.6c-0.7 0-1.3 0.1-1.7 0.4s-0.6 0.7-0.6 1.2c0 0.3 0.2 0.6 0.5 0.9s1.3 0.8 2.9 1.6c2.2 1.1 3.8 2.2 4.7 3.1 0.9 1 1.4 2.1 1.4 3.5 0 1.9-0.7 3.4-2 4.5s-3.1 1.6-5.3 1.6c-1.4 0-2.7-0.2-3.9-0.5s-2.2-0.7-3-1.1v-4.3c2.5 1.4 4.6 2.1 6.4 2.1 0.9 0 1.6-0.2 2.1-0.5s0.8-0.7 0.8-1.2c0-0.3-0.1-0.6-0.3-0.8-0.2-0.3-0.5-0.5-0.9-0.8s-1.6-0.9-3.7-1.9c-1.6-0.8-2.7-1.6-3.5-2.5s-1.1-1.9-1.1-3.2c0-1.7 0.7-3.1 2-4.2 1.3-0.9 3.1-1.5 5.3-1.5z"/>
			<path class="st1" d="m356 103.8c1.1 0 2.1 0.1 3 0.4 1 0.2 2 0.6 3 1.2v4.1c-1-0.6-2-1.1-3.1-1.5s-2.1-0.6-3-0.6c-0.7 0-1.3 0.1-1.7 0.4s-0.6 0.7-0.6 1.2c0 0.3 0.2 0.6 0.5 0.9s1.3 0.8 2.9 1.6c2.2 1.1 3.8 2.2 4.7 3.1 0.9 1 1.4 2.1 1.4 3.5 0 1.9-0.7 3.4-2 4.5s-3.1 1.6-5.3 1.6c-1.4 0-2.7-0.2-3.9-0.5s-2.2-0.7-3-1.1v-4.3c2.5 1.4 4.6 2.1 6.4 2.1 0.9 0 1.6-0.2 2.1-0.5s0.8-0.7 0.8-1.2c0-0.3-0.1-0.6-0.3-0.8-0.2-0.3-0.5-0.5-0.9-0.8s-1.6-0.9-3.7-1.9c-1.6-0.8-2.7-1.6-3.5-2.5s-1.1-1.9-1.1-3.2c0-1.7 0.7-3.1 2-4.2 1.3-0.9 3.1-1.5 5.3-1.5z"/>
			<path class="st1" d="m371.9 95.2c0.8 0 1.5 0.3 2.1 0.9s0.9 1.3 0.9 2.1-0.3 1.5-0.8 2c-0.6 0.6-1.3 0.9-2.1 0.9s-1.5-0.3-2-0.9c-0.6-0.6-0.9-1.3-0.9-2 0-0.8 0.3-1.5 0.9-2.1 0.5-0.7 1.1-0.9 1.9-0.9zm2.6 9v19.6h-5.2v-19.6h5.2z"/>
			<path class="st1" d="m391.7 103.8c2 0 3.9 0.4 5.6 1.3s3 2 3.9 3.6c0.9 1.5 1.4 3.3 1.4 5.2 0 2-0.4 3.8-1.3 5.3s-2.2 2.7-3.9 3.6-3.6 1.3-5.6 1.3c-2.1 0-3.9-0.4-5.6-1.3s-3-2.1-3.8-3.6c-0.9-1.5-1.3-3.3-1.3-5.3s0.5-3.7 1.4-5.3 2.2-2.7 3.9-3.6c1.4-0.7 3.3-1.2 5.3-1.2zm-5.4 10.1c0 2 0.5 3.5 1.4 4.7 1 1.2 2.2 1.8 3.8 1.8 1.7 0 3-0.6 4-1.7s1.4-2.7 1.4-4.8c0-2-0.5-3.5-1.5-4.6s-2.3-1.6-4-1.6c-1.6 0-2.8 0.6-3.8 1.7-0.8 1.1-1.3 2.6-1.3 4.5z"/>
			<path class="st1" d="m420.1 103.8c2.1 0 3.8 0.7 5 2.1 1.3 1.4 1.9 3.2 1.9 5.4v12.5h-5.1v-11.9c0-1.3-0.3-2.3-0.9-3s-1.4-1.1-2.5-1.1c-0.8 0-1.5 0.2-2.2 0.7s-1.5 1.2-2.3 2.3v13h-5.2v-19.6h5.2v2.7c1-1.1 1.9-1.9 2.9-2.4 0.9-0.4 2-0.7 3.2-0.7z"/>
			<path class="st1" d="m441.2 103.8c2.5 0 4.4 0.5 5.8 1.6 1.3 1.1 2 2.6 2 4.5v9.6c0 0.7 0.3 1.1 0.9 1.1 0.3 0 0.6-0.1 1.1-0.3s0.8-0.5 1.1-0.7v3c-1.8 1.1-3.5 1.7-5 1.7-0.9 0-1.6-0.2-2.1-0.5s-0.8-0.9-1-1.6c-2 1.4-4 2.1-5.9 2.1-1.4 0-2.6-0.5-3.6-1.4-1-1-1.5-2.1-1.5-3.4 0-1.7 0.5-3 1.5-4s2.8-1.8 5.3-2.6l4.2-1.2v-0.9c0-1.9-1.2-2.9-3.5-2.9-1.2 0-2.4 0.3-3.5 0.8-1.2 0.5-2.2 1.3-3.2 2.4v-4.6c1.9-1.8 4.4-2.7 7.4-2.7zm-3.2 14.8c0 0.7 0.2 1.3 0.7 1.7s1 0.7 1.7 0.7c1.1 0 2.3-0.5 3.4-1.6v-5.2c-1.4 0.5-2.6 1-3.4 1.4s-1.4 0.9-1.8 1.3c-0.4 0.5-0.6 1-0.6 1.7z"/>
			<path class="st1" d="m462.3 94.5v29.3h-5.2v-29.3h5.2z"/>
		
		
			<path class="st1" d="m225.2 140.3v29.3h-5.7v-29.3h5.7z"/>
			<path class="st1" d="m244.6 149.6c2.1 0 3.8 0.7 5 2.1 1.3 1.4 1.9 3.2 1.9 5.4v12.5h-5.1v-11.9c0-1.3-0.3-2.3-0.9-3s-1.4-1.1-2.5-1.1c-0.8 0-1.5 0.2-2.2 0.7s-1.5 1.2-2.3 2.3v13h-5.2v-19.6h5.2v2.7c1-1.1 1.9-1.9 2.9-2.4 0.9-0.4 2-0.7 3.2-0.7z"/>
			<path class="st1" d="m265 149.6c1.1 0 2.1 0.1 3 0.4 1 0.2 2 0.6 3 1.2v4.1c-1-0.6-2-1.1-3.1-1.5s-2.1-0.6-3-0.6c-0.7 0-1.3 0.1-1.7 0.4s-0.6 0.7-0.6 1.2c0 0.3 0.2 0.6 0.5 0.9s1.3 0.8 2.9 1.6c2.2 1.1 3.8 2.2 4.7 3.1 0.9 1 1.4 2.1 1.4 3.5 0 1.9-0.7 3.4-2 4.5s-3.1 1.6-5.3 1.6c-1.4 0-2.7-0.2-3.9-0.5s-2.2-0.7-3-1.1v-4.3c2.5 1.4 4.6 2.1 6.4 2.1 0.9 0 1.6-0.2 2.1-0.5s0.8-0.7 0.8-1.2c0-0.3-0.1-0.6-0.3-0.8-0.2-0.3-0.5-0.5-0.9-0.8s-1.6-0.9-3.7-1.9c-1.6-0.8-2.7-1.6-3.5-2.5s-1.1-1.9-1.1-3.2c0-1.7 0.7-3.1 2-4.2s3.1-1.5 5.3-1.5z"/>
			<path class="st1" d="m283.5 144.8h0.4v5.2h6.7v3.9h-6.7v9c0 0.9 0.3 1.6 0.8 2.1s1.3 0.8 2.2 0.8c1.2 0 2.6-0.4 4.2-1.3v4.1c-1.9 0.8-3.6 1.2-5.2 1.2-2.2 0-3.9-0.6-5.2-1.8-1.2-1.2-1.9-2.8-1.9-4.9v-9.4h-3.1v-0.8l7.8-8.1z"/>
			<path class="st1" d="m298.9 141c0.8 0 1.5 0.3 2.1 0.9s0.9 1.3 0.9 2.1-0.3 1.5-0.8 2c-0.6 0.6-1.3 0.9-2.1 0.9s-1.5-0.3-2-0.9c-0.6-0.6-0.9-1.3-0.9-2 0-0.8 0.3-1.5 0.9-2.1 0.4-0.7 1.1-0.9 1.9-0.9zm2.6 9v19.6h-5.2v-19.6h5.2z"/>
			<path class="st1" d="m314.3 144.8h0.4v5.2h6.7v3.9h-6.7v9c0 0.9 0.3 1.6 0.8 2.1s1.3 0.8 2.2 0.8c1.2 0 2.6-0.4 4.2-1.3v4.1c-1.9 0.8-3.6 1.2-5.2 1.2-2.2 0-3.9-0.6-5.2-1.8-1.2-1.2-1.9-2.8-1.9-4.9v-9.4h-3.1v-0.8l7.8-8.1z"/>
			<path class="st1" d="m331.9 150v12.1c0 1.3 0.3 2.2 1 2.9 0.6 0.7 1.5 1 2.5 1 0.9 0 1.7-0.3 2.5-0.8s1.4-1.3 1.9-2.2v-13h5.2v19.6h-5.2v-2.6c-1.9 2-3.9 3-6 3s-3.8-0.7-5.1-2.1-1.9-3.2-1.9-5.4v-12.5h5.1z"/>
			<path class="st1" d="m357.7 144.8h0.4v5.2h6.7v3.9h-6.7v9c0 0.9 0.3 1.6 0.8 2.1s1.3 0.8 2.2 0.8c1.2 0 2.6-0.4 4.2-1.3v4.1c-1.9 0.8-3.6 1.2-5.2 1.2-2.2 0-3.9-0.6-5.2-1.8-1.2-1.2-1.9-2.8-1.9-4.9v-9.4h-3.1v-0.8l7.8-8.1z"/>
			<path class="st1" d="m379.1 149.6c2.9 0 5.2 0.9 6.8 2.8 1.7 1.8 2.5 4.4 2.5 7.7v0.8h-13.9c0.2 1.7 0.9 3.1 2 4s2.6 1.4 4.5 1.4c1.2 0 2.4-0.2 3.6-0.6 1.1-0.4 2.3-1.1 3.5-1.9v3.8c-2.3 1.6-5.1 2.4-8.3 2.4-3.1 0-5.6-0.9-7.6-2.8s-2.9-4.3-2.9-7.4c0-3 0.9-5.4 2.7-7.3s4.2-2.9 7.1-2.9zm4.5 8.1c-0.1-1.4-0.6-2.5-1.3-3.3s-1.7-1.2-3-1.2-2.3 0.4-3.1 1.2-1.3 1.9-1.5 3.4h8.9z"/>
		
		
			<path class="st1" d="M225,48.5v24.9h14.2v4.4h-19.9V48.5H225z"/>
			<path class="st1" d="m247.4 49.2c0.8 0 1.5 0.3 2.1 0.9s0.9 1.3 0.9 2.1-0.3 1.5-0.8 2c-0.6 0.6-1.3 0.9-2.1 0.9s-1.5-0.3-2-0.9c-0.6-0.6-0.9-1.3-0.9-2 0-0.8 0.3-1.5 0.9-2.1 0.4-0.7 1.1-0.9 1.9-0.9zm2.6 9v19.6h-5.2v-19.6h5.2z"/>
			<path class="st1" d="m268.8 57.8c2.1 0 3.8 0.7 5 2.1 1.3 1.4 1.9 3.2 1.9 5.4v12.5h-5.1v-11.9c0-1.3-0.3-2.3-0.9-3s-1.4-1.1-2.5-1.1c-0.8 0-1.5 0.2-2.2 0.7s-1.5 1.2-2.3 2.3v13h-5.2v-19.6h5.2v2.8c1-1.1 1.9-1.9 2.9-2.4 0.9-0.5 2-0.8 3.2-0.8z"/>
			<path class="st1" d="m287.8 58.2v12.1c0 1.3 0.3 2.2 1 2.9 0.6 0.7 1.5 1 2.5 1 0.9 0 1.7-0.3 2.5-0.8s1.4-1.3 1.9-2.2v-13h5.2v19.6h-5.2v-2.7c-1.9 2-3.9 3-6 3s-3.8-0.7-5.1-2.1-1.9-3.2-1.9-5.4v-12.4h5.1z"/>
			<path class="st1" d="m311.9 58.2 4.9 6.1 4.7-6.1h6.2l-7.9 9.6 8.5 10h-6.3l-5.3-6.5-5.1 6.5h-6l8.1-10-8.1-9.6h6.3z"/>
		
	

</svg>
